TEST-main/Parte_b/simulation/qsim/PARTEB.msim.vcd
$comment
	File created using the following command:
		vcd file PARTEB.msim.vcd -direction
$end
$date
	Mon Nov 22 23:00:32 2021
$end
$version
	ModelSim Version 10.1d
$end
$timescale
	1ps
$end
$scope module sum_comp_vlg_vec_tst $end
$var reg 1 ! clk $end
$var reg 1 " ia $end
$var reg 1 # ib $end
$var reg 1 $ icin $end
$var wire 1 % ocout $end
$var wire 1 & ores $end
$var wire 1 ' sampler $end
$scope module i1 $end
$var wire 1 ( gnd $end
$var wire 1 ) vcc $end
$var wire 1 * unknown $end
$var tri1 1 + devclrn $end
$var tri1 1 , devpor $end
$var tri1 1 - devoe $end
$var wire 1 . D1|Q~q $end
$var wire 1 / ia~input_o $end
$var wire 1 0 ores~output_o $end
$var wire 1 1 ocout~output_o $end
$var wire 1 2 clk~input_o $end
$var wire 1 3 ib~input_o $end
$var wire 1 4 D2|Q~q $end
$var wire 1 5 icin~input_o $end
$var wire 1 6 D3|Q~q $end
$var wire 1 7 res~0_combout $end
$var wire 1 8 D5|Q~q $end
$var wire 1 9 cout~0_combout $end
$var wire 1 : D4|Q~q $end
$upscope $end
$upscope $end
$enddefinitions $end
#0
$dumpvars
0!
0"
0#
0$
0%
0&
x'
0(
1)
x*
1+
1,
1-
0.
0/
00
01
02
03
04
05
06
07
08
09
0:
$end
#25000
1!
12
0'
#50000
1"
0!
1/
02
1'
#75000
1!
12
0'
1.
17
#100000
1$
0"
0!
15
0/
02
1'
#125000
1!
12
0'
16
0.
18
10
1&
#150000
1"
0!
1/
02
1'
#175000
1!
12
0'
1.
19
07
#200000
0$
0"
0!
05
0/
02
1'
#225000
1!
12
0'
06
0.
1:
08
09
11
00
1%
0&
#250000
1"
0!
1/
02
1'
#275000
1!
12
0'
1.
0:
17
01
0%
#300000
1$
0"
0!
15
0/
02
1'
#325000
1!
12
0'
16
0.
18
10
1&
#350000
1"
0!
1/
02
1'
#375000
1!
12
0'
1.
19
07
#400000
0$
0"
0!
05
0/
02
1'
#425000
1!
12
0'
06
0.
1:
08
09
11
00
1%
0&
#450000
1"
0!
1/
02
1'
#475000
1!
12
0'
1.
0:
17
01
0%
#500000
1$
0"
0!
15
0/
02
1'
#525000
1!
12
0'
16
0.
18
10
1&
#550000
1"
0!
1/
02
1'
#575000
1!
12
0'
1.
19
07
#600000
0$
0"
0!
05
0/
02
1'
#625000
1!
12
0'
06
0.
1:
08
09
11
00
1%
0&
#650000
1"
0!
1/
02
1'
#675000
1!
12
0'
1.
0:
17
01
0%
#700000
1$
0"
0!
15
0/
02
1'
#725000
1!
12
0'
16
0.
18
10
1&
#750000
1"
0!
1/
02
1'
#775000
1!
12
0'
1.
19
07
#800000
0$
0"
0!
05
0/
02
1'
#825000
1!
12
0'
06
0.
1:
08
09
11
00
1%
0&
#850000
1"
0!
1/
02
1'
#875000
1!
12
0'
1.
0:
17
01
0%
#900000
1$
0"
0!
15
0/
02
1'
#925000
1!
12
0'
16
0.
18
10
1&
#950000
1"
0!
1/
02
1'
#975000
1!
12
0'
1.
19
07
