TEST-main/simulation/qsim/PARTEA.msim.vcd
$comment
	File created using the following command:
		vcd file PARTEA.msim.vcd -direction
$end
$date
	Mon Nov 07 17:49:04 2022
$end
$version
	ModelSim Version 10.1d
$end
$timescale
	1ps
$end
$scope module PARTEA_vlg_vec_tst $end
$var reg 1 ! SW1 $end
$var reg 1 " SW2 $end
$var wire 1 # LED $end
$var wire 1 $ sampler $end
$scope module i1 $end
$var wire 1 % gnd $end
$var wire 1 & vcc $end
$var wire 1 ' unknown $end
$var tri1 1 ( devclrn $end
$var tri1 1 ) devpor $end
$var tri1 1 * devoe $end
$var wire 1 + LED~output_o $end
$var wire 1 , SW2~input_o $end
$var wire 1 - SW1~input_o $end
$var wire 1 . LED~0_combout $end
$upscope $end
$upscope $end
$enddefinitions $end
#0
$dumpvars
0!
x"
x#
x$
0%
1&
x'
1(
1)
1*
x+
x,
0-
x.
$end
#3143
0.
#5000
1!
0$
#5718
1+
1#
#5769
1-
#8678
x.
#11263
x+
x#
#35000
0!
1$
#35874
0-
#39017
0.
#40000
1!
0$
#40769
1-
#41592
1+
1#
#43678
x.
#46263
x+
x#
#70000
0!
1$
#70874
0-
#74017
0.
#75000
1!
0$
#75769
1-
#76592
1+
1#
#78678
x.
#80000
0!
1$
#80874
0-
#81263
x+
x#
#84017
0.
#86592
1+
1#
#90000
1!
0$
#90769
1-
#93678
x.
#96263
x+
x#
#110000
0!
1$
#110874
0-
#114017
0.
#115000
1!
0$
#115769
1-
#116592
1+
1#
#118678
x.
#121263
x+
x#
#125000
0!
1$
#125874
0-
#129017
0.
#130000
1!
0$
#130769
1-
#131592
1+
1#
#133678
x.
#136263
x+
x#
#145000
0!
1$
#145874
0-
#149017
0.
#151592
1+
1#
#160000
1!
0$
#160769
1-
#163678
x.
#165000
0!
1$
#165874
0-
#166263
x+
x#
#169017
0.
#170000
1!
0$
#170769
1-
#171592
1+
1#
#173678
x.
#175000
0!
1$
#175874
0-
#176263
x+
x#
#179017
0.
#180000
1!
0$
#180769
1-
#181592
1+
1#
#183678
x.
#186263
x+
x#
#190000
0!
1$
#190874
0-
#194017
0.
#196592
1+
1#
#220000
1!
0$
#220769
1-
#223678
x.
#225000
0!
1$
#225874
0-
#226263
x+
x#
#229017
0.
#231592
1+
1#
#240000
1!
0$
#240769
1-
#243678
x.
#246263
x+
x#
#255000
0!
1$
#255874
0-
#259017
0.
#261592
1+
1#
#265000
1!
0$
#265769
1-
#268678
x.
#270000
0!
1$
#270874
0-
#271263
x+
x#
#274017
0.
#276592
1+
1#
#280000
1!
0$
#280769
1-
#283678
x.
#285000
0!
1$
#285874
0-
#286263
x+
x#
#289017
0.
#291592
1+
1#
#315000
1!
0$
#315769
1-
#318678
x.
#321263
x+
x#
#340000
0!
1$
#340874
0-
#344017
0.
#345000
1!
0$
#345769
1-
#346592
1+
1#
#348678
x.
#351263
x+
x#
#400000
0!
1$
#400874
0-
#404017
0.
#406592
1+
1#
#415000
1!
0$
#415769
1-
#418678
x.
#421263
x+
x#
#425000
0!
1$
#425874
0-
#429017
0.
#431592
1+
1#
#435000
1!
0$
#435769
1-
#438678
x.
#441263
x+
x#
#450000
0!
1$
#450874
0-
#454017
0.
#456592
1+
1#
#460000
1!
0$
#460769
1-
#463678
x.
#466263
x+
x#
#470000
0!
1$
#470874
0-
#474017
0.
#476592
1+
1#
#485000
1!
0$
#485769
1-
#488678
x.
#490000
0!
1$
#490874
0-
#491263
x+
x#
#494017
0.
#496592
1+
1#
#500000
1!
0$
#500769
1-
#503678
x.
#505000
0!
1$
#505874
0-
#506263
x+
x#
#509017
0.
#511592
1+
1#
#515000
1!
0$
#515769
1-
#518678
x.
#520000
0!
1$
#520874
0-
#521263
x+
x#
#524017
0.
#525000
1!
0$
#525769
1-
#526592
1+
1#
#528678
x.
#530000
0!
1$
#530874
0-
#531263
x+
x#
#534017
0.
#535000
1!
0$
#535769
1-
#536592
1+
1#
#538678
x.
#540000
0!
1$
#540874
0-
#541263
x+
x#
#544017
0.
#546592
1+
1#
#560000
1!
0$
#560769
1-
#563678
x.
#565000
0!
1$
#565874
0-
#566263
x+
x#
#569017
0.
#571592
1+
1#
#575000
1!
0$
#575769
1-
#578678
x.
#580000
0!
1$
#580874
0-
#581263
x+
x#
#584017
0.
#586592
1+
1#
#590000
1!
0$
#590769
1-
#593678
x.
#596263
x+
x#
#610000
0!
1$
#610874
0-
#614017
0.
#616592
1+
1#
#625000
1!
0$
#625769
1-
#628678
x.
#630000
0!
1$
#630874
0-
#631263
x+
x#
#634017
0.
#635000
1!
0$
#635769
1-
#636592
1+
1#
#638678
x.
#641263
x+
x#
#650000
0!
1$
#650874
0-
#654017
0.
#656592
1+
1#
#675000
1!
0$
#675769
1-
#678678
x.
#681263
x+
x#
#685000
0!
1$
#685874
0-
#689017
0.
#690000
1!
0$
#690769
1-
#691592
1+
1#
#693678
x.
#696263
x+
x#
#710000
0!
1$
#710874
0-
#714017
0.
#715000
1!
0$
#715769
1-
#716592
1+
1#
#718678
x.
#721263
x+
x#
#725000
0!
1$
#725874
0-
#729017
0.
#730000
1!
0$
#730769
1-
#731592
1+
1#
#733678
x.
#735000
0!
1$
#735874
0-
#736263
x+
x#
#739017
0.
#741592
1+
1#
#745000
1!
0$
#745769
1-
#748678
x.
#750000
0!
1$
#750874
0-
#751263
x+
x#
#754017
0.
#755000
1!
0$
#755769
1-
#756592
1+
1#
#758678
x.
#761263
x+
x#
#775000
0!
1$
#775874
0-
#779017
0.
#781592
1+
1#
#785000
1!
0$
#785769
1-
#788678
x.
#791263
x+
x#
#795000
0!
1$
#795874
0-
#799017
0.
#800000
1!
0$
#800769
1-
#801592
1+
1#
#803678
x.
#805000
0!
1$
#805874
0-
#806263
x+
x#
#809017
0.
#811592
1+
1#
#820000
1!
0$
#820769
1-
#823678
x.
#826263
x+
x#
#830000
0!
1$
#830874
0-
#834017
0.
#836592
1+
1#
#850000
1!
0$
#850769
1-
#853678
x.
#856263
x+
x#
#860000
0!
1$
#860874
0-
#864017
0.
#865000
1!
0$
#865769
1-
#866592
1+
1#
#868678
x.
#871263
x+
x#
#880000
0!
1$
#880874
0-
#884017
0.
#886592
1+
1#
#895000
1!
0$
#895769
1-
#898678
x.
#901263
x+
x#
#905000
0!
1$
#905874
0-
#909017
0.
#910000
1!
0$
#910769
1-
#911592
1+
1#
#913678
x.
#916263
x+
x#
#925000
0!
1$
#925874
0-
#929017
0.
#931592
1+
1#
#955000
1!
0$
#955769
1-
#958678
x.
#960000
0!
1$
#960874
0-
#961263
x+
x#
#964017
0.
#966592
1+
1#
#970000
1!
0$
#970769
1-
#973678
x.
#975000
0!
1$
#975874
0-
#976263
x+
x#
#979017
0.
#981592
1+
1#
#985000
1!
0$
#985769
1-
#988678
x.
#990000
0!
1$
#990874
0-
#991263
x+
x#
#994017
0.
#995000
1!
0$
#995769
1-
#996592
1+
1#
#998678
x.
